title;price
Peugeot 3008 1.6 Hdi Fap 110KM 2009r. Climatronic ! Alu ! Tempomat !;29000PLN
Ford Mondeo 2.0Tdci, Automat, sprowadzony, opłacony, gotowy do rejestracji;22500PLN
Ford Mondeo MK4 2.0 TDCi 140PS Convers+ Android Mapy Google Yanosik Kamera ZarejPL;13880PLN
BMW X4 2.0dA XDRIVE * LEDER * NAVI * PDC;27.846 €
Skoda Skoda Yeti 1,8 TSI zu verkaufen;3.999 €
Mercedes-Benz CLA-Klasse 180 Business Solution Shooting br.;€ 24.950,00
Mercedes-Benz C-Klasse 200 Kom. AMG Avantgarde pakket;€ 11.500,00
Audi A3 Sportback 1.4 TFSI Ambition Pro Line Business AUTOMA;€ 9.750,00
2014 Audi R8 4.2 QUATTRO;US $75,000.00
2012 Porsche 911 CARRERA 2 BLACK;$40,199.00
2002 Honda Accord EX;$1,325.00
